STA314 Assignment 1: Making a cross-stitch pattern for a given image
…
cluster_info[[k]] returns two tibbles dat and centres for the \(k\) number of clusters implemented on the image. dat is all the data points after clustered and tidied with RGB values, where centres tells us detailed information about each cluster, such as the colour col of the clusters and their closest dmc colours hex and the name dmc.

# for example, k = 3
cluster_info[[3]]$dat

## # A tibble: 50,625 x 8
##        x     y     R     G     B cluster dmc                            hex    
##    <int> <int> <dbl> <dbl> <dbl> <fct>   <chr>                          <chr>  
##  1     1     1 0.671 0.502 0.369 1       Desert Sand - Very Dark (3772) #A06C50
##  2     2     1 0.671 0.502 0.369 1       Desert Sand - Very Dark (3772) #A06C50
##  3     3     1 0.675 0.506 0.373 1       Desert Sand - Very Dark (3772) #A06C50
##  4     4     1 0.678 0.510 0.376 1       Desert Sand - Very Dark (3772) #A06C50
##  5     5     1 0.682 0.514 0.380 1       Desert Sand - Very Dark (3772) #A06C50
##  6     6     1 0.682 0.514 0.380 1       Desert Sand - Very Dark (3772) #A06C50
##  7     7     1 0.686 0.518 0.384 1       Desert Sand - Very Dark (3772) #A06C50
##  8     8     1 0.686 0.518 0.384 1       Desert Sand - Very Dark (3772) #A06C50
##  9     9     1 0.678 0.510 0.376 1       Desert Sand - Very Dark (3772) #A06C50
## 10    10     1 0.678 0.510 0.376 1       Desert Sand - Very Dark (3772) #A06C50
## # … with 50,615 more rows
…
